{
    "KPlugin": {
        "Authors": [
            {
                "Email": "butirsky@gmail.com",
                "Name": "Andrey Butirsky",
                "Name[ar]": "Andrey Butirsky",
                "Name[az]": "Andrey Butirsky",
                "Name[ca@valencia]": "Andrey Butirsky",
                "Name[ca]": "Andrey Butirsky",
                "Name[cs]": "Andrey Butirsky",
                "Name[en_GB]": "Andrey Butirsky",
                "Name[es]": "Andrey Butirsky",
                "Name[fi]": "Andrey Butirsky",
                "Name[fr]": "Andrey Butirsky",
                "Name[hu]": "Andrey Butirsky",
                "Name[ia]": "Andrey Butirsky",
                "Name[it]": "Andrey Butirsky",
                "Name[lt]": "Andrey Butirsky",
                "Name[nl]": "Andrey Butirsky",
                "Name[nn]": "Andrey Butirsky",
                "Name[pl]": "Andrey Butirsky",
                "Name[pt_BR]": "Andrey Butirsky",
                "Name[ro]": "Andrey Butirsky",
                "Name[ru]": "Андрей Бутырский",
                "Name[sk]": "Andrey Butirsky",
                "Name[sl]": "Andrey Butirsky",
                "Name[sv]": "Andrey Butirsky",
                "Name[uk]": "Андрєй Бутирскій",
                "Name[vi]": "Andrey Butirsky",
                "Name[x-test]": "xxAndrey Butirskyxx",
                "Name[zh_CN]": "Andrey Butirsky"
            }
        ],
        "Description": "Show/switch keyboard layout",
        "Description[ar]": "اعرض/بدّل بين تخطيطات لوحات المفاتيح",
        "Description[az]": "Klaviatura qatını göstərmək/dəyişmək",
        "Description[ca@valencia]": "Mostra/commuta la disposició del teclat",
        "Description[ca]": "Mostra/commuta la disposició del teclat",
        "Description[cs]": "Zobrazit/přepnout rozvržení klávesnice",
        "Description[en_GB]": "Show/switch keyboard layout",
        "Description[es]": "Mostrar o cambiar la distribución del teclado",
        "Description[fi]": "Näytä tai vaihda näppäimistöasettelu",
        "Description[fr]": "Afficher / Basculer une disposition de clavier",
        "Description[hu]": "Billentyűzetkiosztások megjelenítése/váltása",
        "Description[ia]": "Monstra/commuta disposition de claviero",
        "Description[it]": "Mostra/Cambia la mappatura della tastiera",
        "Description[lt]": "Rodyti/perjungti klaviatūros išdėstymą",
        "Description[nl]": "Toon/schakel tussen toetsenbordindelingen",
        "Description[nn]": "Vis/byt tastaturoppsett",
        "Description[pa]": "ਕੀਬੋਰਡ ਲੇਆਉਟ ਵੇਖੋ/ਬਦਲੋ",
        "Description[pl]": "Pokaż/przełącz układ klawiatury",
        "Description[pt_BR]": "Mostrar/alterar o layout de teclado",
        "Description[ro]": "Arată/schimbă aranjamentul de tastatură",
        "Description[ru]": "Просмотр и переключение между раскладками клавиатуры",
        "Description[sl]": "Oglej/preklopi razporeditev tipk",
        "Description[sv]": "Visa och byt tangentbordslayout",
        "Description[uk]": "Показати/Перемкнути розкладку клавіатури",
        "Description[vi]": "Hiện/chuyển bố cục bàn phím",
        "Description[x-test]": "xxShow/switch keyboard layoutxx",
        "Description[zh_CN]": "显示/切换键盘布局",
        "EnabledByDefault": true,
        "Icon": "input-keyboard",
        "Id": "org.kde.plasma.keyboardlayout",
        "License": "GPL-2.0+",
        "Name": "Keyboard Layout",
        "Name[af]": "Sleutelbord Uitleg",
        "Name[ar]": "تخطيط لوحة المفاتيح",
        "Name[ast]": "Distribución del tecláu",
        "Name[az]": "Klaviatura Qatı",
        "Name[be@latin]": "Vykład klavijatury",
        "Name[be]": "Раскладка клавіятуры",
        "Name[bg]": "Клавиатурни подредби",
        "Name[bn]": "কীবোর্ড বিন্যাস",
        "Name[bn_IN]": "কি-বোর্ড বিন্যাস",
        "Name[br]": "Reizhadur ar stokellaoueg",
        "Name[ca@valencia]": "Disposició del teclat",
        "Name[ca]": "Disposició del teclat",
        "Name[cs]": "Rozvržení klávesnice",
        "Name[csb]": "Ùstôw klawiaturë",
        "Name[cy]": "Cynllun Bysellfwrdd",
        "Name[da]": "Tastaturlayout",
        "Name[de]": "Tastaturbelegung",
        "Name[el]": "Διάταξη πληκτρολογίου",
        "Name[en_GB]": "Keyboard Layout",
        "Name[eo]": "Klavararanĝo",
        "Name[es]": "Distribución del teclado",
        "Name[et]": "Klaviatuuri paigutus",
        "Name[eu]": "Teklatu-diseinua",
        "Name[fa]": "طرح‌بندی صفحه کلید",
        "Name[fi]": "Näppäinasettelu",
        "Name[fr]": "Disposition du clavier",
        "Name[fy]": "Toetseboerdyndieling",
        "Name[ga]": "Leagan Amach Méarchláir",
        "Name[gl]": "Disposición do teclado",
        "Name[gu]": "કીબોર્ડ દેખાવ",
        "Name[hi]": "कुंजीपट ख़ाका",
        "Name[hne]": "कुंजीपट खाका",
        "Name[hr]": "Raspored tipkovnice",
        "Name[hsb]": "Tastaturowy layout",
        "Name[hu]": "Billentyűzetkiosztás",
        "Name[ia]": "Disposition de claviero",
        "Name[id]": "Layout Keyboard",
        "Name[is]": "Lyklaborð",
        "Name[it]": "Mappatura della tastiera",
        "Name[ja]": "キーボード配列",
        "Name[ka]": "კლავიატურის განლაგება",
        "Name[kk]": "Перенетақта сәйкестігі",
        "Name[km]": "ប្លង់​ក្ដារចុច",
        "Name[kn]": "ಕೀಲಿಮಣೆ ವಿನ್ಯಾಸ",
        "Name[ko]": "키보드 레이아웃",
        "Name[ku]": "Rengê Klavyeyê",
        "Name[lt]": "Klaviatūros išdėstymas",
        "Name[lv]": "Tastatūras izkārtojums",
        "Name[mai]": "कीबोर्ड लेआउट",
        "Name[mk]": "Распоред на тастатура",
        "Name[mr]": "कळफलक रचना",
        "Name[nds]": "Tasttoornen",
        "Name[ne]": "कुञ्जीपाटी सजावट",
        "Name[nl]": "Toetsenbordindeling",
        "Name[nn]": "Tastaturoppsett",
        "Name[oc]": "Disposicion del clavièr",
        "Name[or]": "କିବୋର୍ଡ଼ ବିନ୍ୟାସ",
        "Name[pa]": "ਕੀ-ਬੋਰਡ ਲੇਆਉਟ",
        "Name[pl]": "Układ klawiatury",
        "Name[pt]": "Disposição do Teclado",
        "Name[pt_BR]": "Layout do teclado",
        "Name[ro]": "Aranjament de tastatură",
        "Name[ru]": "Раскладка клавиатуры",
        "Name[si]": "යතුරුපුවරු ආකෘතිය",
        "Name[sk]": "Rozloženie klávesnice",
        "Name[sl]": "Razporeditev tipk",
        "Name[sv]": "Tangentbordslayout",
        "Name[ta]": "விசைப்பலகை தளவமைப்பு",
        "Name[te]": "కీబోర్డ్ కూర్పు",
        "Name[tg]": "Тугмабандии клавиатура",
        "Name[th]": "ผังแป้นพิมพ์",
        "Name[tr]": "Klavye Düzeni",
        "Name[ug]": "ھەرپتاختا ئورۇنلاشتۇرۇلۇشى",
        "Name[uk]": "Розкладка клавіатури",
        "Name[uz@cyrillic]": "Тугмалар тартиби",
        "Name[uz]": "Tugmalar tartibi",
        "Name[vi]": "Bố cục bàn phím",
        "Name[wa]": "Adjinçmint del taprece",
        "Name[x-test]": "xxKeyboard Layoutxx",
        "Name[xh]": "Ubeko Lwebhodi yezitshixo",
        "Name[zh_CN]": "键盘布局",
        "Name[zh_TW]": "鍵盤佈局",
        "ServiceTypes": [
            "Plasma/Applet"
        ],
        "Version": "1.0",
        "Website": "https://kde.org/plasma-desktop/"
    },
    "X-Plasma-API": "declarativeappletscript",
    "X-Plasma-MainScript": "ui/main.qml",
    "X-Plasma-NotificationArea": "true",
    "X-Plasma-NotificationAreaCategory": "Hardware"
}
