{
    "KPlugin": {
        "Authors": [
            {
                "Email": "sebas@kde.org",
                "Name": "Sebastian Kügler",
                "Name[ar]": "Sebastian Kügler",
                "Name[az]": "Sebastian Kügler",
                "Name[ca@valencia]": "Sebastian Kügler",
                "Name[ca]": "Sebastian Kügler",
                "Name[cs]": "Sebastian Kügler",
                "Name[en_GB]": "Sebastian Kügler",
                "Name[es]": "Sebastian Kügler",
                "Name[fi]": "Sebastian Kügler",
                "Name[fr]": "Sebastian Kügler",
                "Name[hu]": "Sebastian Kügler",
                "Name[ia]": "Sebastian Kügler",
                "Name[it]": "Sebastian Kügler",
                "Name[lt]": "Sebastian Kügler",
                "Name[nl]": "Sebastian Kügler",
                "Name[nn]": "Sebastian Kügler",
                "Name[pl]": "Sebastian Kügler",
                "Name[pt_BR]": "Sebastian Kügler",
                "Name[ro]": "Sebastian Kügler",
                "Name[ru]": "Sebastian Kügler",
                "Name[sk]": "Sebastian Kügler",
                "Name[sl]": "Sebastian Kügler",
                "Name[sv]": "Sebastian Kügler",
                "Name[uk]": "Sebastian Kügler",
                "Name[vi]": "Sebastian Kügler",
                "Name[x-test]": "xxSebastian Küglerxx",
                "Name[zh_CN]": "Sebastian Kügler"
            }
        ],
        "Category": "Windows and Tasks",
        "Description": "Shows the desktop by minimizing all windows",
        "Description[ar]": "تظهر سطح المكتب بتصغير كل النوافذ",
        "Description[az]": "Bütün pəncərələri kiçiltməklə İş Masasını göstərir",
        "Description[ca@valencia]": "Mostra l'escriptori minimitzant totes les finestres",
        "Description[ca]": "Mostra l'escriptori minimitzant totes les finestres",
        "Description[cs]": "Zobrazit plochu minimalizací všech oken",
        "Description[en_GB]": "Shows the desktop by minimising all windows",
        "Description[es]": "Muestra el escritorio minimizando todas las ventanas",
        "Description[fi]": "Näyttää työpöydän pienentämällä kaikki ikkunat",
        "Description[fr]": "Afficher le bureau en minimisant toutes les fenêtres",
        "Description[hu]": "Megjeleníti az asztalt az összes ablak minimalizálásával",
        "Description[ia]": "Monstra le scriptorio per minimisar omne fenestras",
        "Description[it]": "Mostra il desktop minimizzando tutte le finestre",
        "Description[lt]": "Suskleisdamas visus langus, rodo darbalaukį",
        "Description[nl]": "Toont het bureaublad door alle vensters te minimaliseren",
        "Description[nn]": "Viser skrivebordet ved å minimera alle vindauga",
        "Description[pl]": "Ukazuje pulpit minimalizując wszystkie okna",
        "Description[pt_BR]": "Mostra a área de trabalho ao minimizar todas as janelas",
        "Description[ro]": "Arată biroul prin minimizarea tuturor ferestrelor",
        "Description[ru]": "Показывает рабочий стол, свернув все окна",
        "Description[sl]": "Prikaže namizje s strnjevanjem vseh oken",
        "Description[sv]": "Visar skrivbordet genom att minimera alla fönster",
        "Description[uk]": "Показати стільницю, мінімізувавши усі вікна",
        "Description[vi]": "Hiện bàn làm việc bằng cách thu nhỏ tất cả các cửa sổ",
        "Description[x-test]": "xxShows the desktop by minimizing all windowsxx",
        "Description[zh_CN]": "最小化所有窗口以显示桌面",
        "EnabledByDefault": true,
        "Icon": "user-desktop",
        "Id": "org.kde.plasma.minimizeall",
        "License": "GPL-2.0+",
        "Name": "Minimize all Windows",
        "Name[ar]": "صغّر كل النوافذ",
        "Name[az]": "Bütün pəncərələri kiçiltmək",
        "Name[ca@valencia]": "Minimitza totes les finestres",
        "Name[ca]": "Minimitza totes les finestres",
        "Name[cs]": "Minimalizovat všechna okna",
        "Name[da]": "Minimér alle vinduer",
        "Name[de]": "Alle Fenster minimieren",
        "Name[en_GB]": "Minimise all Windows",
        "Name[es]": "Minimizar todas las ventanas",
        "Name[et]": "Kõigi akende minimeerimine",
        "Name[eu]": "Ikonotu leiho guztiak",
        "Name[fi]": "Pienennä kaikki ikkunat",
        "Name[fr]": "Minimiser toutes les fenêtres",
        "Name[gl]": "Minimizar todas as xanelas",
        "Name[hu]": "Összes ablak minimalizálása",
        "Name[ia]": "Minimisa omne fenestras",
        "Name[id]": "Minimalkan Semua Window",
        "Name[it]": "Minimizza tutte le finestre",
        "Name[ja]": "すべてのウィンドウを最小化",
        "Name[ko]": "모든 창 최소화",
        "Name[lt]": "Suskleisti visus langus",
        "Name[ml]": "എല്ലാ ജാലകങ്ങളും ചെറുതാക്കുക",
        "Name[nl]": "Alle vensters minimaliseren",
        "Name[nn]": "Minimer alle vindauga",
        "Name[pa]": "ਸਭ ਵਿੰਡੋਆਂ ਨੂੰ ਘੱਟੋ-ਘੱਟ ਕਰੋ",
        "Name[pl]": "Minimalizacja wszystkich okien",
        "Name[pt]": "Minimizar Todas as Janelas",
        "Name[pt_BR]": "Minimizar todas as janelas",
        "Name[ro]": "Minimizează toate ferestrele",
        "Name[ru]": "Свернуть все окна",
        "Name[sk]": "Minimalizovať všetky okná",
        "Name[sl]": "Strni vsa okna",
        "Name[sv]": "Minimera alla fönster",
        "Name[ta]": "அனைத்து சாளரங்களையும் ஒதுக்கு",
        "Name[tr]": "Tüm Pencereleri Küçült",
        "Name[uk]": "Мінімізувати усі вікна",
        "Name[vi]": "Thu nhỏ tất cả các cửa sổ",
        "Name[x-test]": "xxMinimize all Windowsxx",
        "Name[zh_CN]": "最小化所有窗口",
        "Name[zh_TW]": "最小化所有視窗",
        "ServiceTypes": [
            "Plasma/Applet"
        ],
        "Version": "1.0",
        "Website": "https://kde.org/plasma-desktop"
    },
    "X-Plasma-API": "declarativeappletscript",
    "X-Plasma-MainScript": "ui/main.qml",
    "X-Plasma-Provides": [
        "org.kde.plasma.windowmanagement"
    ]
}
